*{
    margin: 0;
    padding: 0;
    box-sizing: border-box;
    text-decoration: none;
    font-family: 'Roboto', sans-serif;

}

body{
    background-image: url("../imagenes/wallpaperbetter.jpg"); /* con el ../ salis de una carpeta para poder entrar a otra */
    background-size: cover;
    background-repeat: no-repeat;
    background-position: center;
    background-attachment: fixed; 
}
main{
    width: 100%;
    padding: 20px;
    margin: auto;
    margin-top: 100px;
}
.contenedor__todo{
    width: 100%;
    max-width: 800px;
    margin: auto;
    position: relative; /*Poner relaciones relativas para que se relacionen con las absolutas */
}
.caja__trasera{
    width: 100%;
    padding: 10px 20px;
    display: flex;
    justify-content: center;
    backdrop-filter: blur (10px);
    background-color: rgba(121, 73, 253, 0.5);
}
.caja__trasera div{
    margin: 100px 40px;
    color: white;
    transition: all 500ms;
}

.caja__trasera div p,
    .caja__trasera div button{
        margin-top: 30px;
}
.caja__trasera div h3{
    font-weight: 400;
    font-size: 26px;
}
.caja__trasera button{ /*Tamaño del botón y demás cosas*/
    padding: 10px 40px;
    border: 2px solid rgb(255, 255, 255);/*color blanco*/
    background: transparent;
    font-size: 14px;
    font-weight: 600;
    cursor: pointer;
    color: white;
    outline: none;
    transition: all 300ms;

}
.caja__trasera button:hover{
    background: #fff;
    color:#8f46fd;
}

/* FORMULARIOS */
.contenedor__login-register{
    display: flex;
    align-items: center; /*posicionamos en el centro*/
    width: 100%;
    max-width: 380px;
    position: relative;
    top: -185px;
    left: 10px;

    transition: left 500ms cubic-bezier(0.175, 0.885, 0.320, 1.275);
}

.contenedor__login-register form{
    width: 100%;
    padding: 80px 20px;
    background: #fff;
    position: absolute;
border-radius: 20px;
}

.contenedor__login-register form h2{/*Modificamos el cartel de Registrarse*/
    font-size: 30px;
    text-align: center;
    margin-bottom: 20px;
    color:#7154f5 ;
}
.contenedor__login-register form input{ /*Modificamos los huecos de los formularios*/
    width: 100%;
    margin-top: 20px;
    padding: 10px;
    border: none;
    background: #f2f2f2;
    font-size: 16px;
    outline: none;
}
.contenedor__login-register form button{
    margin-top: 40px;
    padding: 10px 40px;
    border: none;
    font-size: 14px;
    background: #9546fd;
    color: white;
    cursor: pointer;
}
.formulario__login{
    opacity: 1;
    display: block;
}
.formulario__register{
    display: none;
}

/*TRABAJANDO EN EL RESPONSIVE DESIGN*/

@media screen and (max-width: 850px){
    main{
        margin-top: 50px;
    }

    .caja__trasera{
        max-width: 350px;
        height: 300px;
        flex-direction: column;
        margin: auto;
    }
    .caja__trasera div{
        margin: 0px;
        position: absolute;
    }

    /*FORMULARIO*/

    .contenedor__login-register{
        top: -10px;
        left: -5px;
        margin: auto;
    }

    .contenedor__login-register form{
        position: relative;
    }
}

